{
  "mongoURI": "mongodb+srv://giridharsk:Getin123@devconnector-ekabl.mongodb.net/test?retryWrites=true&w=majority",
  "jwtSecret": "mysecrettoken",
  "gitClient": "7815c1d5d50c75fb7013",
  "gitSecret": "22f53b2cd97fcee3101da363af404958168f3f17"
}
